…
Code/ideas: Pepijn, Joyce, Gina, (Probably others)

``` r
gg_gallery_pkgs <-
  "https://raw.githubusercontent.com/ggplot2-exts/gallery/refs/heads/gh-pages/_config.yml" |>
  httr2::request() |>
  httr2::req_perform() |>
  httr2::resp_body_string() |>
  (\(x) yaml::read_yaml(text = x))() |>
  _$widgets |>
  dplyr::bind_rows() |>
  dplyr::rename(package = name)

gg_gallery_pkgs |> tibble::tibble()
#> # A tibble: 148 × 10
#>    package  thumbnail url   ghuser ghrepo tags  cran  ghauthor short description
#>    <chr>    <chr>     <chr> <chr>  <chr>  <chr> <lgl> <chr>    <chr> <chr>      
#>  1 ggQQunif images/g… http… rcorty ggQQu… visu… TRUE  rcorty   "Mak… "For \"big…
#>  2 ggupset  images/g… http… const… ggups… visu… TRUE  const-ae "Com… "Replace t…
#>  3 xmrr     images/x… http… Zanid… xmrr   XmR,… TRUE  Alex Za… "Gen… "Use xmr()…
#>  4 gg3D     images/g… http… Acker… gg3D   3D, … FALSE Daniel … "3D … "gg3D adds…
#>  5 ggQC     images/g… http… kenit… ggQC   QC, … TRUE  Kenith … "Use… "ggQC is u…
#>  6 ggdist   images/g… http… mjskay ggdist visu… TRUE  mjskay   "'gg… "'ggdist' …
#>  7 ggedit   images/g… http… metru… ggedit visu… TRUE  yonicd   "gge… "ggedit is…
#>  8 ggpage   images/g… http… emilh… ggpage visu… TRUE  emilhvi… "Cre… "Facilitat…
#>  9 ggpca    images/g… http… Yaoxi… ggpca  visu… TRUE  Yaoxian… "Pro… "`ggpca` o…
#> 10 ggbreak  images/g… http… YuLab… ggbre… visu… TRUE  YuLab-S… "Set… "An implem…
#> # ℹ 138 more rows
…
Code/ideas: June, Joyce, Pepijn, Gina

``` r
cran_gg_w_ggplot2_depends_or_imports <- tools::CRAN_package_db() |> 
  dplyr::filter(
    stringr::str_detect(Package, "^gg|^GG|gg$|GG$") | 
      Package %in% gg_gallery_pkgs$package,
    stringr::str_detect(Depends, "ggplot2") | 
      stringr::str_detect(Imports, "ggplot2")
  ) |>
  dplyr::mutate(ind_gallery = Package %in% gg_gallery_pkgs$package) |>
  janitor::clean_names()

cran_gg_w_ggplot2_depends_or_imports |> tibble::tibble() 
#> # A tibble: 243 × 70
#>    package version priority depends imports linking_to suggests enhances license
#>    <chr>   <chr>   <chr>    <chr>   <chr>   <chr>      <chr>    <chr>    <chr>  
#>  1 autopl… 0.1.4   <NA>     R (>= … "metho… <NA>       "testth… <NA>     GPL-2  
#>  2 calendR 1.2     <NA>     <NA>    "ggplo… <NA>        <NA>    <NA>     GPL-2  
#>  3 Comple… 1.3.3   <NA>     <NA>    "ggplo… <NA>       "testth… <NA>     MIT + …
#>  4 cowplot 1.1.3   <NA>     R (>= … "ggplo… <NA>       "Cairo,… <NA>     GPL-2  
#>  5 deepti… 2.1.0   <NA>     R (>= … "deept… <NA>       "geomte… <NA>     GPL (>…
#>  6 egg     0.4.5   <NA>     gridEx… "gtabl… <NA>       "knitr,… <NA>     GPL-3  
#>  7 esquis… 2.1.0   <NA>     <NA>    "bslib… <NA>       "office… <NA>     GPL-3 …
#>  8 geofac… 0.2.1   <NA>     R (>= … "ggplo… <NA>       "sf, te… <NA>     MIT + …
#>  9 geomte… 0.1.5   <NA>     ggplot… "grid,… <NA>       "testth… <NA>     MIT + …
#> 10 gg.gap  1.3     <NA>     <NA>    "ggplo… <NA>        <NA>    <NA>     GPL-3  
#> # ℹ 233 more rows
#> # ℹ 61 more variables: license_is_foss <chr>, license_restricts_use <chr>,
#> #   os_type <chr>, archs <chr>, md5sum <chr>, needs_compilation <chr>,
#> #   additional_repositories <chr>, author <chr>, authors_r <chr>, biarch <chr>,
#> #   bug_reports <chr>, build_keep_empty <chr>, build_manual <chr>,
#> #   build_resave_data <chr>, build_vignettes <chr>, built <chr>,
#> #   byte_compile <chr>, classification_acm <chr>, …
…
